[gd_scene load_steps=2 format=2]

[ext_resource path="res://scripts/fix_joint.gd" type="Script" id=1]

[node name="FixJoint2D" type="Node2D"]
script = ExtResource( 1 )

[node name="PinJoint2D1" type="PinJoint2D" parent="."]
position = Vector2( 0, -20 )
node_a = NodePath("..")
node_b = NodePath("..")

[node name="PinJoint2D2" type="PinJoint2D" parent="."]
position = Vector2( 0, 20 )
node_a = NodePath("..")
node_b = NodePath("..")

[node name="PinJoint2D3" type="PinJoint2D" parent="."]
position = Vector2( 20, 0 )
node_a = NodePath("..")
node_b = NodePath("..")

[node name="PinJoint2D4" type="PinJoint2D" parent="."]
position = Vector2( -20, 0 )
node_a = NodePath("..")
node_b = NodePath("..")
