[gd_scene load_steps=3 format=2]

[sub_resource type="RectangleShape2D" id=1]
extents = Vector2( 1500, 100 )

[sub_resource type="RectangleShape2D" id=3]
extents = Vector2( 101.919, 102.039 )

[node name="PhysicsTests" type="Node2D"]

[node name="StaticBody2D" type="StaticBody2D" parent="."]
position = Vector2( 1023.89, 1006.92 )

[node name="CollisionShape2D" type="CollisionShape2D" parent="StaticBody2D"]
shape = SubResource( 1 )

[node name="RigidBody2D3" type="RigidBody2D" parent="."]
position = Vector2( 380.085, 408.675 )
rotation = -0.467878

[node name="Node2D" type="Node2D" parent="RigidBody2D3"]

[node name="CollisionShape2D" type="CollisionShape2D" parent="RigidBody2D3/Node2D"]
shape = SubResource( 3 )
