[gd_scene load_steps=3 format=2]

[ext_resource path="res://scripts/spikes.gd" type="Script" id=3]

[sub_resource type="OpenSimplexNoise" id=1]
octaves = 1
period = 20.0

[node name="Tree" type="Polygon2D"]
modulate = Color( 0.133333, 0.584314, 0.376471, 1 )
position = Vector2( 80.8173, 186.329 )
polygon = PoolVector2Array( 321.936, 632.34, 436.605, 303.746, 471.866, 91.8343, 572.209, -201.709, 645.735, 81.755, 762.908, 401.775, 816.906, 637.893 )

[node name="Spikes" type="Polygon2D" parent="."]
show_behind_parent = true
polygon = PoolVector2Array( 261.719, 611.327, 256.086, 598.77, 204.121, 570.044, 209.836, 561.447, 273.628, 573.117, 262.059, 558.488, 191.878, 523.406, 206.614, 517.957, 228.814, 515.113, 284.026, 523.788, 294.404, 516.819, 278.983, 500.846, 291.458, 494.608, 265.898, 475.097, 268.748, 465.5, 315.85, 471.346, 312.363, 459.537, 273.843, 435.504, 314.557, 439.12, 358.837, 443.981, 347.672, 429.494, 302.342, 403.083, 269.837, 381.149, 279.527, 373.939, 318.954, 377.106, 342.092, 374.589, 349.087, 366.439, 367.107, 362.136, 377.893, 355.308, 336.763, 330.364, 323.974, 315.31, 375.958, 322.859, 393.492, 318.386, 394.573, 308.172, 404.867, 301.173, 386.475, 295.404, 399.455, 287.426, 420.925, 280.861, 410.555, 268.999, 373.784, 252.742, 360.286, 240.359, 402.229, 237.201, 422.723, 230.473, 392.88, 215.37, 375.514, 202.343, 375.943, 192.277, 398.071, 185.821, 433.086, 181.51, 434.205, 171.559, 417.375, 158.621, 433.903, 151.234, 426.588, 139.879, 415.715, 127.932, 430.852, 120.313, 442.058, 112.041, 427.726, 99.5183, 419.275, 87.9745, 417.643, 73.299, 428.375, 66.3996, 458.541, 66.143, 458.135, 55.4363, 438.77, 38.2485, 456.867, 33.8667, 475.167, 29.554, 464.263, 15.2586, 465.073, 4.96736, 483.946, 0.850643, 498.634, -4.69672, 490.824, -17.9346, 484.111, -30.7974, 498.997, -36.277, 497.402, -47.3903, 496.944, -58.1149, 504.243, -66.1879, 507.022, -75.8062, 517.081, -82.9359, 523.635, -91.2635, 523.022, -102.041, 523.375, -112.489, 529.736, -120.882, 534.428, -129.847, 543.49, -137.317, 548.21, -146.272, 548.087, -156.882, 551.306, -166.349, 557.786, -174.703, 564.254, -183.06, 567.868, -192.392, 572.1, -201.514, 572.209, -201.709, 575.859, -192.325, 579.846, -183.028, 584.789, -173.979, 587.304, -164.301, 588.508, -154.282, 589.939, -144.322, 593.816, -134.997, 603.672, -127.223, 605.171, -117.281, 605.67, -107.079, 608.11, -97.381, 613.353, -88.41, 623.767, -80.7804, 629.831, -72.0223, 632.349, -62.3446, 627.964, -50.8763, 636.083, -42.6511, 651.781, -36.3922, 650.873, -25.8257, 639.479, -12.5393, 629.962, 0.26032, 631.578, 10.172, 642.028, 17.7922, 653.417, 25.169, 656.187, 34.7815, 650.381, 46.6185, 654.169, 55.9668, 681.769, 59.1388, 671.864, 72.0388, 667.986, 73.6081, 689.46, 76.3948, 706.526, 80.7953, 699.537, 94.0036, 706.184, 102.219, 715.932, 109.299, 719.414, 118.674, 718.006, 129.838, 722.962, 138.673, 729.129, 147.064, 737.8, 154.538, 721.931, 170.998, 718.931, 182.746, 742.289, 184.843, 748.572, 193.191, 759.562, 199.817, 770.219, 206.564, 753.524, 223.326, 747.427, 236.207, 738.667, 250.064, 745.398, 258.249, 756.487, 264.838, 787.362, 264.182, 785.502, 275.513, 746.897, 300.297, 745.784, 311.354, 769.126, 313.456, 816.872, 306.624, 825.08, 314.268, 828.174, 323.784, 854.454, 324.811, 812.005, 351.003, 815.497, 360.373, 856.375, 356.055, 825.634, 377.96, 826.533, 387.224, 859.389, 389.969, 896.483, 391.744, 885.966, 404.407, 833.479, 426.669, 821.605, 439.642, 857.765, 441.631, 899.232, 442.406, 870.963, 459.129, 829.578, 478.852, 845.625, 485.44, 872.925, 489.455, 851.708, 504.565, 810.668, 524.209, 839.66, 527.837, 900.243, 524.24, 895.08, 535.679, 868.149, 552.096, 868.248, 562.332, 912.782, 562.405, 959.35, 562.014, 929.803, 579.029, 889.676, 598.464, 923.608, 600.962, 898.151, 617.042 )
script = ExtResource( 3 )
noise = SubResource( 1 )
height = 200.0
