[gd_resource type="StyleBoxFlat" format=2]

[resource]
bg_color = Color( 0, 0, 0, 0.3 )
corner_radius_top_left = 100
corner_radius_top_right = 100
corner_radius_bottom_right = 100
corner_radius_bottom_left = 100
